Crime in Minneapolis
…
## See spec(...) for full column specifications.

police_stop_data <- read_csv("data/Police_Stop_Data.csv")

What is the ethnicity of those who are commmitting the crimes?

crime_incidents %>%
  group_by(offense) %>%
  summarise(unique(offense))

## # A tibble: 35 x 2
##    offense `unique(offense)`
##    <chr>   <chr>            
##  1 ARSON   ARSON            
##  2 ASLT1   ASLT1            
##  3 ASLT2   ASLT2            
##  4 ASLT3   ASLT3            
##  5 ASLT4   ASLT4            
##  6 AUTOTH  AUTOTH           
##  7 BIKETF  BIKETF           
##  8 BURGB   BURGB            
##  9 BURGD   BURGD            
## 10 COINOP  COINOP           
## #  with 25 more rows
…
                   "ROBPER") ~ "Robbery",
    offense %in% c("SHOPLF") ~ "Shoplifting",
    offense %in% c("COMPUT") ~ "Computer Hacking",
    offense %in% c("CSCR") ~ "Rape",
    # Combing first, second and third degree domestic assult with domestic assault strangulation
    offense %in% c("DASLT1",
                   "DASLT2",
                   "DASLT3",
                   "DASTR") ~ "Domestic Assault",
    offense %in% c("DISARM") ~ "Disarm a police officer",
    offense %in% c("LOOT") ~ "Looting",
    offense %in% c("MURDR") ~ "Murder"))
clean_crime

## # A tibble: 43,283 x 23
##        X     Y publicaddress caseNumber precinct reportedDate reportedTime
##    <dbl> <dbl> <chr>         <chr>      <chr>    <chr>               <dbl>
##  1 -93.3  44.9 0027XX 43RD  MP2018181 5        2018/06/10          1237
##  2 -93.3  45.0 0024XX CHICA MP2018184 3        2018/06/05           202
##  3 -93.2  45.0 0011XX FILLM MP2018184 2        2018/06/05           330
##  4 -93.3  44.9 0053XX 12TH  MP2018184 3        2018/06/05           412
##  5 -93.2  44.9 0045XX 18TH  MP2018184 3        2018/06/05           952
##  6 -93.3  44.9 0043XX WENTW MP2018184 5        2018/06/05          1112
##  7 -93.3  44.9 00001X LAKE  MP2018184 5        2018/06/05          1257
##  8 -93.3  45.0 0012XX WASHI MP2018184 1        2018/06/05          1344
##  9 -93.3  45.0 00007X BROAD MP2018184 2        2018/06/05          1447
## 10 -93.3  45.0 <NA>          MP2018184 1        2018/06/05          1747
## #  with 43,273 more rows, and 16 more variables: beginDate <chr>,
## #   reportedDateTime <chr>, beginTime <dbl>, offense <chr>, description <chr>,
## #   UCRCode <chr>, enteredDate <chr>, centergbsid <dbl>, centerLong <dbl>,
## #   centerLat <dbl>, centerX <dbl>, centerY <dbl>, neighborhood <chr>,
## #   lastchanged <chr>, LastUpdateDateETL <chr>, OBJECTID <dbl>
…
